^zad2.asm
D:\Projekty\Assemblerowe\ASM-LAB3-ZAD2\ASM-LAB3-ZAD2\Debug\zad2.obj
^zad2.asm
D:\Projekty\Assemblerowe\ASM-LAB3-ZAD2\ASM-LAB3-ZAD2\Debug\zad2.obj
^zad2.asm
D:\Projekty\Assemblerowe\ASM-LAB3-ZAD2\ASM-LAB3-ZAD2\Debug\zad2.obj
^zad2.asm
D:\Projekty\Assemblerowe\ASM-LAB3-ZAD2\ASM-LAB3-ZAD2\Debug\zad2.obj
^zad2.asm
D:\Projekty\Assemblerowe\ASM-LAB3-ZAD2\ASM-LAB3-ZAD2\Debug\zad2.obj
^zad2.asm
D:\Projekty\Assemblerowe\ASM-LAB3-ZAD2\ASM-LAB3-ZAD2\Debug\zad2.obj
^zad2.asm
D:\Projekty\Assemblerowe\ASM-LAB3-ZAD2\ASM-LAB3-ZAD2\Debug\zad2.obj
^zad2.asm
D:\Projekty\Assemblerowe\ASM-LAB3-ZAD2\ASM-LAB3-ZAD2\Debug\zad2.obj
^zad2.asm
D:\Projekty\Assemblerowe\ASM-LAB3-ZAD2\ASM-LAB3-ZAD2\Debug\zad2.obj
^zad2.asm
D:\Projekty\Assemblerowe\ASM-LAB3-ZAD2\ASM-LAB3-ZAD2\Debug\zad2.obj
^zad2.asm
D:\Projekty\Assemblerowe\ASM-LAB3-ZAD2\ASM-LAB3-ZAD2\Debug\zad2.obj
^zad2.asm
D:\Projekty\Assemblerowe\ASM-LAB3-ZAD2\ASM-LAB3-ZAD2\Debug\zad2.obj
^zad2.asm
D:\Projekty\Assemblerowe\ASM-LAB3-ZAD2\ASM-LAB3-ZAD2\Debug\zad2.obj
^zad2.asm
D:\Projekty\Assemblerowe\ASM-LAB3-ZAD2\ASM-LAB3-ZAD2\Debug\zad2.obj
^zad2.asm
D:\Projekty\Assemblerowe\ASM-LAB3-ZAD2\ASM-LAB3-ZAD2\Debug\zad2.obj
^zad2.asm
D:\Projekty\Assemblerowe\ASM-LAB3-ZAD2\ASM-LAB3-ZAD2\Debug\zad2.obj
^zad2.asm
D:\Projekty\Assemblerowe\ASM-LAB3-ZAD2\ASM-LAB3-ZAD2\Debug\zad2.obj
^zad2.asm
D:\Projekty\Assemblerowe\ASM-LAB3-ZAD2\ASM-LAB3-ZAD2\Debug\zad2.obj
^zad2.asm
D:\Projekty\Assemblerowe\ASM-LAB3-ZAD2\ASM-LAB3-ZAD2\Debug\zad2.obj
^zad2.asm
D:\Projekty\Assemblerowe\ASM-LAB3-ZAD2\ASM-LAB3-ZAD2\Debug\zad2.obj
^zad2.asm
D:\Projekty\Assemblerowe\ASM-LAB3-ZAD2\ASM-LAB3-ZAD2\Debug\zad2.obj
^zad2.asm
D:\Projekty\Assemblerowe\ASM-LAB3-ZAD2\ASM-LAB3-ZAD2\Debug\zad2.obj
^zad2.asm
D:\Projekty\Assemblerowe\ASM-LAB3-ZAD2\ASM-LAB3-ZAD2\Debug\zad2.obj
^zad2.asm
D:\Projekty\Assemblerowe\ASM-LAB3-ZAD2\ASM-LAB3-ZAD2\Debug\zad2.obj
^zad2.asm
D:\Projekty\Assemblerowe\ASM-LAB3-ZAD2\ASM-LAB3-ZAD2\Debug\zad2.obj
^zad2.asm
D:\Projekty\Assemblerowe\ASM-LAB3-ZAD2\ASM-LAB3-ZAD2\Debug\zad2.obj
